org\springboot\services\TopicService.class
org\springboot\CourseApiMainClass.class
org\springboot\domain\Topic.class
org\springboot\controllers\TopicController.class
org\springboot\dao\TopicRepository.class
