F:\JAVA\Spring\STS_NEW\Projects\SpringBoot\src\main\java\org\springboot\controllers\TopicController.java
F:\JAVA\Spring\STS_NEW\Projects\SpringBoot\src\main\java\org\springboot\CourseApiMainClass.java
F:\JAVA\Spring\STS_NEW\Projects\SpringBoot\src\main\java\org\springboot\dao\TopicRepository.java
F:\JAVA\Spring\STS_NEW\Projects\SpringBoot\src\main\java\org\springboot\services\TopicService.java
F:\JAVA\Spring\STS_NEW\Projects\SpringBoot\src\main\java\org\springboot\domain\Topic.java
